<?xml version="1.0" encoding="UTF-8" standalone="no"?>
<!DOCTYPE svg PUBLIC "-//W3C//DTD SVG 1.1//EN"
 "http://www.w3.org/Graphics/SVG/1.1/DTD/svg11.dtd">
<!-- Generated by graphviz version 2.40.1 (20161225.0304)
 -->
<!-- Title: class_graph Pages: 1 -->
<svg width="1312pt" height="116pt"
 viewBox="0.00 0.00 1311.94 116.00" xmlns="http://www.w3.org/2000/svg" xmlns:xlink="http://www.w3.org/1999/xlink">
<g id="graph0" class="graph" transform="scale(1 1) rotate(0) translate(4 112)">
<title>class_graph</title>
<polygon fill="#ffffff" stroke="transparent" points="-4,4 -4,-112 1307.9394,-112 1307.9394,4 -4,4"/>
<!-- a -->
<g id="node1" class="node">
<title>a</title>
<ellipse fill="none" stroke="#000000" cx="187.545" cy="-18" rx="56.59" ry="18"/>
<text text-anchor="middle" x="187.545" y="-14.3" font-family="Times,serif" font-size="14.00" fill="#000000">Student 1</text>
</g>
<!-- b -->
<g id="node2" class="node">
<title>b</title>
<ellipse fill="none" stroke="#000000" cx="56.545" cy="-18" rx="56.59" ry="18"/>
<text text-anchor="middle" x="56.545" y="-14.3" font-family="Times,serif" font-size="14.00" fill="#000000">Student 2</text>
</g>
<!-- c -->
<g id="node3" class="node">
<title>c</title>
<ellipse fill="none" stroke="#000000" cx="318.545" cy="-18" rx="56.59" ry="18"/>
<text text-anchor="middle" x="318.545" y="-14.3" font-family="Times,serif" font-size="14.00" fill="#000000">Student 3</text>
</g>
<!-- d -->
<g id="node4" class="node">
<title>d</title>
<ellipse fill="none" stroke="#000000" cx="711.545" cy="-18" rx="56.59" ry="18"/>
<text text-anchor="middle" x="711.545" y="-14.3" font-family="Times,serif" font-size="14.00" fill="#000000">Student 4</text>
</g>
<!-- e -->
<g id="node5" class="node">
<title>e</title>
<ellipse fill="none" stroke="#000000" cx="842.545" cy="-18" rx="56.59" ry="18"/>
<text text-anchor="middle" x="842.545" y="-14.3" font-family="Times,serif" font-size="14.00" fill="#000000">Student 5</text>
</g>
<!-- f -->
<g id="node6" class="node">
<title>f</title>
<ellipse fill="none" stroke="#000000" cx="449.545" cy="-18" rx="56.59" ry="18"/>
<text text-anchor="middle" x="449.545" y="-14.3" font-family="Times,serif" font-size="14.00" fill="#000000">Student 6</text>
</g>
<!-- g -->
<g id="node7" class="node">
<title>g</title>
<ellipse fill="none" stroke="#000000" cx="580.545" cy="-18" rx="56.59" ry="18"/>
<text text-anchor="middle" x="580.545" y="-14.3" font-family="Times,serif" font-size="14.00" fill="#000000">Student 7</text>
</g>
<!-- h -->
<g id="node8" class="node">
<title>h</title>
<ellipse fill="none" stroke="#000000" cx="973.545" cy="-18" rx="56.59" ry="18"/>
<text text-anchor="middle" x="973.545" y="-14.3" font-family="Times,serif" font-size="14.00" fill="#000000">Student 8</text>
</g>
<!-- i -->
<g id="node9" class="node">
<title>i</title>
<ellipse fill="none" stroke="#000000" cx="1104.545" cy="-18" rx="56.59" ry="18"/>
<text text-anchor="middle" x="1104.545" y="-14.3" font-family="Times,serif" font-size="14.00" fill="#000000">Student 9</text>
</g>
<!-- j -->
<g id="node10" class="node">
<title>j</title>
<ellipse fill="none" stroke="#000000" cx="1241.545" cy="-18" rx="62.2891" ry="18"/>
<text text-anchor="middle" x="1241.545" y="-14.3" font-family="Times,serif" font-size="14.00" fill="#000000">Student 10</text>
</g>
<!-- 1 -->
<g id="node11" class="node">
<title>1</title>
<ellipse fill="none" stroke="#000000" cx="187.545" cy="-90" rx="56.59" ry="18"/>
<text text-anchor="middle" x="187.545" y="-86.3" font-family="Times,serif" font-size="14.00" fill="#000000">Teacher 1</text>
</g>
<!-- 1&#45;&#45;a -->
<g id="edge1" class="edge">
<title>1&#45;&#45;a</title>
<path fill="none" stroke="#000000" d="M187.545,-71.8314C187.545,-61 187.545,-47.2876 187.545,-36.4133"/>
</g>
<!-- 1&#45;&#45;b -->
<g id="edge2" class="edge">
<title>1&#45;&#45;b</title>
<path fill="none" stroke="#000000" d="M159.1199,-74.3771C137.1468,-62.3003 106.8737,-45.6616 84.9146,-33.5924"/>
</g>
<!-- 1&#45;&#45;c -->
<g id="edge3" class="edge">
<title>1&#45;&#45;c</title>
<path fill="none" stroke="#000000" d="M215.97,-74.3771C237.9431,-62.3003 268.2163,-45.6616 290.1754,-33.5924"/>
</g>
<!-- 2 -->
<g id="node12" class="node">
<title>2</title>
<ellipse fill="none" stroke="#000000" cx="711.545" cy="-90" rx="56.59" ry="18"/>
<text text-anchor="middle" x="711.545" y="-86.3" font-family="Times,serif" font-size="14.00" fill="#000000">Teacher 2</text>
</g>
<!-- 2&#45;&#45;c -->
<g id="edge4" class="edge">
<title>2&#45;&#45;c</title>
<path fill="none" stroke="#000000" d="M659.2376,-83.1491C594.2275,-74.2312 480.0645,-57.2456 383.545,-36 375.9974,-34.3387 368.0212,-32.3375 360.339,-30.2823"/>
</g>
<!-- 2&#45;&#45;d -->
<g id="edge5" class="edge">
<title>2&#45;&#45;d</title>
<path fill="none" stroke="#000000" d="M711.545,-71.8314C711.545,-61 711.545,-47.2876 711.545,-36.4133"/>
</g>
<!-- 2&#45;&#45;e -->
<g id="edge6" class="edge">
<title>2&#45;&#45;e</title>
<path fill="none" stroke="#000000" d="M739.97,-74.3771C761.9431,-62.3003 792.2163,-45.6616 814.1754,-33.5924"/>
</g>
<!-- 3 -->
<g id="node13" class="node">
<title>3</title>
<ellipse fill="none" stroke="#000000" cx="449.545" cy="-90" rx="56.59" ry="18"/>
<text text-anchor="middle" x="449.545" y="-86.3" font-family="Times,serif" font-size="14.00" fill="#000000">Teacher 3</text>
</g>
<!-- 3&#45;&#45;a -->
<g id="edge10" class="edge">
<title>3&#45;&#45;a</title>
<path fill="none" stroke="#000000" d="M406.4947,-78.2342C366.5786,-67.3167 305.5381,-50.6005 252.545,-36 245.3202,-34.0094 237.6452,-31.8892 230.1968,-29.8284"/>
</g>
<!-- 3&#45;&#45;b -->
<g id="edge11" class="edge">
<title>3&#45;&#45;b</title>
<path fill="none" stroke="#000000" d="M397.2376,-83.1491C332.2275,-74.2312 218.0645,-57.2456 121.545,-36 113.9974,-34.3387 106.0212,-32.3375 98.339,-30.2823"/>
</g>
<!-- 3&#45;&#45;d -->
<g id="edge7" class="edge">
<title>3&#45;&#45;d</title>
<path fill="none" stroke="#000000" d="M492.5953,-78.2342C532.5114,-67.3167 593.5519,-50.6005 646.545,-36 653.7698,-34.0094 661.4447,-31.8892 668.8931,-29.8284"/>
</g>
<!-- 3&#45;&#45;f -->
<g id="edge8" class="edge">
<title>3&#45;&#45;f</title>
<path fill="none" stroke="#000000" d="M449.545,-71.8314C449.545,-61 449.545,-47.2876 449.545,-36.4133"/>
</g>
<!-- 3&#45;&#45;g -->
<g id="edge9" class="edge">
<title>3&#45;&#45;g</title>
<path fill="none" stroke="#000000" d="M477.97,-74.3771C499.9431,-62.3003 530.2163,-45.6616 552.1754,-33.5924"/>
</g>
<!-- 4 -->
<g id="node14" class="node">
<title>4</title>
<ellipse fill="none" stroke="#000000" cx="1104.545" cy="-90" rx="56.59" ry="18"/>
<text text-anchor="middle" x="1104.545" y="-86.3" font-family="Times,serif" font-size="14.00" fill="#000000">Teacher 4</text>
</g>
<!-- 4&#45;&#45;h -->
<g id="edge12" class="edge">
<title>4&#45;&#45;h</title>
<path fill="none" stroke="#000000" d="M1076.1199,-74.3771C1054.1468,-62.3003 1023.8737,-45.6616 1001.9146,-33.5924"/>
</g>
<!-- 4&#45;&#45;i -->
<g id="edge13" class="edge">
<title>4&#45;&#45;i</title>
<path fill="none" stroke="#000000" d="M1104.545,-71.8314C1104.545,-61 1104.545,-47.2876 1104.545,-36.4133"/>
</g>
<!-- 4&#45;&#45;j -->
<g id="edge14" class="edge">
<title>4&#45;&#45;j</title>
<path fill="none" stroke="#000000" d="M1133.9349,-74.5542C1156.7357,-62.5713 1188.2305,-46.0193 1211.2558,-33.9184"/>
</g>
</g>
</svg>
